{
  "Bags": [
    "totes",
    "bags",
    "bag",
    "wallet",
    "boxes",
    "plastic",
    "packs",
    "pack",
    "carry",
    "blazers",
    "jackets",
    "shoes",
    "carrying"
  ],
  "Bathroom": [
    "bathroom",
    "shower",
    "kitchen",
    "toilet",
    "bath",
    "room",
    "floor",
    "closet",
    "laundry",
    "bed",
    "bed",
    "sink",
    "ottomans",
    "ottoman"
  ],
  "Dairy & eggs": [
    "dairy",
    "eggs"
  ],
  "Boys clothing": [
    "boys",
    "boy"
  ],
  "Arts & crafts": [
    "art",
    "craft"
  ],
  "Drinks": [
    "drinks",
    "drink",
    "drinking",
    "beer",
    "lager",
    "beer",
    "coffee",
    "booze",
    "drank",
    "beers",
    "snack",
    "vodka",
    "soda",
    "liquor"
  ],
  "Music": [
    "music",
    "songs",
    "tunes",
    "song",
    "musical",
    "revival",
    "sax",
    "jazz",
    "bebop",
    "dance",
    "tango",
    "waltz"
  ],
  "Car cleaning": [
    "car cleaning",
    "car washing"
  ],
  "Cupboard food": [
    "cupboard food"
  ],
  "Household & pet": [
    "household and pet",
    "cat",
    "dog"
  ],
  "Haircare": [
    "shampoo",
    "balm",
    "tanner",
    "vaseline",
    "vera",
    "hair",
    "shea",
    "spf",
    "neutrogena",
    "wash",
    "soap",
    "rinse",
    "shaving",
    "spray"
  ],
  "Gaming": [
    "gaming",
    "gamers",
    "gamer",
    "gambling",
    "games",
    "deathmatch",
    "multiplayer",
    "casino",
    "royale",
    "roulette",
    "zynga",
    "gow",
    "poker",
    "game"
  ],
  "Sound & vision": [
    "sound and vision"
  ],
  "Batteries, bulbs & wiper blades": [
    "batteries",
    "bulb",
    "wiper",
    "blade"
  ],
  "Garden": [
    "garden",
    "gardens",
    "lawn",
    "outdoor",
    "pond",
    "koi",
    "trees",
    "flower",
    "daisy",
    "plants",
    "yard",
    "grass"
  ],
  "Electrical accessories": [
    "electrical accessories"
  ],
  "Travel accessories": [
    "travel accessories"
  ],
  "Girls accessories": [
    "girls accessories"
  ],
  "Makeup": [
    "makeup",
    "cosmetics",
    "lipstick",
    "kohl",
    "hair",
    "mascara",
    "nail",
    "concealer",
    "beauty",
    "polish",
    "lip",
    "remy",
    "skin"
  ],
  "Bed linen": [
    "bed linen"
  ],
  "Fruits & veg": [
    "fruits and vegetables",
    "apple"
  ],
  "Nursery": [
    "cradle",
    "trundle",
    "bed",
    "ottomans",
    "ottoman",
    "sleeper",
    "nap",
    "couch"
  ],
  "Bath & body": [
    "bath and body"
  ],
  "Dresses": [
    "dress",
    "prom",
    "bride",
    "apparel",
    "wedding",
    "couture",
    "jeans",
    "wear",
    "ivory",
    "silk",
    "velvet"
  ],
  "Home appliances": [
    "home appliences"
  ],
  "Lighting": [
    "lighting",
    "lights",
    "streetlight",
    "light",
    "cfl",
    "lit",
    "outdoor",
    "electrical",
    "glow",
    "radiant",
    "radiance",
    "shade",
    "lantern",
    "lanterns"
  ],
  "Baby accessories": [
    "baby accessories"
  ],
  "Car accessories": [
    "car accessories"
  ],
  "Furniture": [
    "furniture",
    "ottomans",
    "ottoman",
    "timber",
    "timbers",
    "wood",
    "victorian",
    "deco",
    "kitchen",
    "wooden",
    "chair",
    "oak",
    "elm",
    "walnut",
    "oaks"
  ],
  "Car security": [
    "car security"
  ],
  "Decorative accessories": [
    "decorative accessories"
  ],
  "Girls clothing": [
    "girls clothing"
  ],
  "Computing & phones": [
    "computing and phones",
    "computer",
    "phone"
  ],
  "Fresh food": [
    "fresh food"
  ],
  "Bakery": [
    "bakery",
    "deli",
    "baker",
    "grocery",
    "pizza",
    "cakes",
    "bread",
    "cafe",
    "restaurant",
    "diner",
    "baked",
    "shop",
    "cake"
  ],
  "Paperbacks & hardbacks": [
    "paperbacks and hardbacks"
  ],
  "Beauty tools": [
    "beauty tools"
  ],
  "Toys & activities": [
    "toys and activities"
  ],
  "Boys accessories": [
    "boys accessories"
  ],
  "Fragrances": [
    "edt",
    "cologne",
    "musk",
    "cosmetics",
    "smell",
    "balm",
    "tanner",
    "vaseline",
    "vera",
    "smells",
    "spray",
    "lipstick",
    "bottle",
    "shampoo"
  ],
  "Jewellery": [
    "tiffany",
    "jewelry",
    "925",
    "sterling",
    "cz",
    "diamond",
    "rings",
    "silver",
    "sliver",
    "jade",
    "onyx",
    "pearl",
    "diamonds",
    "fashion",
    "couture"
  ],
  "DVDs": [
    "dvds",
    "ripper",
    "dvd",
    "vhs",
    "vcr",
    "cds",
    "movies",
    "movies",
    "bluray",
    "tdk",
    "blu",
    "cd",
    "videos",
    "dv",
    "hd"
  ],
  "Men's grooming": [
    "men's grooming",
    "men grooming"
  ],
  "Accessories": [
    "apparel",
    "products",
    "gadget",
    "tiffany",
    "jewelry",
    "equipment",
    "items",
    "kit",
    "bags",
    "totes",
    "furniture",
    "shop"
  ],
  "Bath": [
    "bath",
    "bathroom",
    "shower",
    "sink",
    "wash",
    "soap",
    "pool"
  ],
  "Skincare": [
    "cosmetics",
    "makeup",
    "lipstick",
    "edt",
    "cologne",
    "products",
    "mascara",
    "beauty",
    "balm",
    "tanner",
    "vaseline",
    "vera",
    "shea",
    "spf",
    "neutrogena"
  ],
  "Musical instruments": [
    "musical instruments"
  ],
  "Kitchen & dining": [
    "kitchen",
    "dining"
  ],
  "eBooks": [
    "ebook"
  ],
  "Clothing": [
    "apparel",
    "clothing",
    "clothes",
    "shirts",
    "blazers",
    "jackets",
    "wear",
    "jeans",
    "dress",
    "pants",
    "pants",
    "pj",
    "couture"
  ],
  "Baby clothing": [
    "baby clothing"
  ],
  "Footwear": [
    "shoes",
    "shoe",
    "boots",
    "crocs",
    "gladiator",
    "peep",
    "puma",
    "nike",
    "mbt",
    "asics",
    "adidas",
    "reebok",
    "mittens",
    "socks"
  ]
}